{
	"ImportPath": "gitlab.com/esantoro/stack-todolist",
	"GoVersion": "go1.4.2",
	"Deps": [
		{
			"ImportPath": "github.com/boj/redistore",
			"Comment": "v1-9-g9c0e6ba",
			"Rev": "9c0e6bab4dd444285424f189b8fb0cb03f653242"
		},
		{
			"ImportPath": "github.com/garyburd/redigo/internal",
			"Rev": "9d4db5d1dbeff473d50e1bb82f5405c8cca0f0ac"
		},
		{
			"ImportPath": "github.com/garyburd/redigo/redis",
			"Rev": "9d4db5d1dbeff473d50e1bb82f5405c8cca0f0ac"
		},
		{
			"ImportPath": "github.com/gin-gonic/contrib/sessions",
			"Rev": "14f66d54cdb96059bafca98665bcc6d9df4951f2"
		},
		{
			"ImportPath": "github.com/gin-gonic/gin",
			"Comment": "v1.0rc1-136-gfd5d429",
			"Rev": "fd5d4294a5d5223d55fc76d7840f4b0ad91647bb"
		},
		{
			"ImportPath": "github.com/gorilla/context",
			"Rev": "215affda49addc4c8ef7e2534915df2c8c35c6cd"
		},
		{
			"ImportPath": "github.com/gorilla/securecookie",
			"Rev": "68004d2ba3cbc80d3a9949ea431b5c9f22ee8707"
		},
		{
			"ImportPath": "github.com/gorilla/sessions",
			"Rev": "f61c3ec2cf65d69e7efedfd4d060fe128882c951"
		},
		{
			"ImportPath": "github.com/jinzhu/gorm",
			"Rev": "f6f66a60b25aaafa6a43a788e2233a8ea5440a72"
		},
		{
			"ImportPath": "github.com/lib/pq",
			"Comment": "go1.0-cutoff-56-gdc50b6a",
			"Rev": "dc50b6ad2d3ee836442cf3389009c7cd1e64bb43"
		},
		{
			"ImportPath": "github.com/manucorporat/sse",
			"Rev": "fe6ea2c8e398672518ef204bf0fbd9af858d0e15"
		},
		{
			"ImportPath": "github.com/mattn/go-colorable",
			"Rev": "40e4aedc8fabf8c23e040057540867186712faa5"
		},
		{
			"ImportPath": "github.com/qor/inflection",
			"Rev": "45321e63b98c756df17369c027c1df89298e1288"
		},
		{
			"ImportPath": "golang.org/x/crypto/bcrypt",
			"Rev": "cc04154d65fb9296747569b107cfd05380b1ea3e"
		},
		{
			"ImportPath": "golang.org/x/crypto/blowfish",
			"Rev": "cc04154d65fb9296747569b107cfd05380b1ea3e"
		},
		{
			"ImportPath": "golang.org/x/net/context",
			"Rev": "3cffabab72adf04f8e3b01c5baf775361837b5fe"
		},
		{
			"ImportPath": "gopkg.in/bluesuncorp/validator.v5",
			"Comment": "v5.10.3",
			"Rev": "77108103e5fd435ff31967e1a011fda801391c85"
		}
	]
}
